{
    "tailleGrille": [30, 15],
    "delay": 200,
    "walls": [[6,0],[6,1],[6,2],[6,3],[6,4],[6,5],[4,10],[5,10],[6,10],[7,10],[8,10],[9,10],[12,5],[12,4],[12,3],[12,2],[13,14],[13,13],[13,12],[13,11],[13,10],[14,10],[15,10],[16,10],[24,0],[24,1],[24,2],[24,3],[24,4],[24,5],[24,6],[24,7],[12,6],[0,5],[1,5]],
    "food": [
        [22,10]
    ],
    "snake": [
        [7,8],[8,8],[9,8],[10,8],[11,8]
    ],

    "ice":[
        [14,4],[14,5],[15,5],[16,5],[15,4],[16,4],[17,4],[17,5],[18,5],[18,4],[15,3],[16,3],[17,3],[18,3],[19,3],[20,3],[21,3],[22,3],[22,4],[21,4],[20,4],[19,4],[20,2],[21,2],[20,5],[19,5],[1,12],[1,13],[2,13],[2,12],[3,13],[4,13],[27,13],[26,12],[25,13],[25,12],[24,12],[24,11],[25,11]
    ],

    "oil":[
        [15,12],[17,13],[1,1]
    ]
}