{
    "tailleGrille" : [120,60],
    
    "menu":[[6,49],[6,50],[6,51],[6,52],[6,53],[7,56],[6,56],[6,54],[6,55],[8,56],[9,56],[10,56],[12,54],[13,54],[12,52],[13,52],[14,53],[11,53],[11,54],[11,55],[12,56],[13,56],[14,56],[16,52],[17,54],[17,53],[18,55],[19,52],[19,54],[19,53],[18,56],[21,54],[22,54],[23,54],[24,53],[23,52],[22,52],[21,53],[21,55],[22,56],[23,56],[24,56],[26,52],[26,53],[26,54],[26,55],[26,56],[27,56],[26,50],[26,51],[34,51],[34,52],[30,54],[30,55],[31,56],[32,56],[33,56],[34,56],[31,53],[32,53],[33,53],[30,50],[31,50],[32,50],[33,50],[6,38],[7,38],[8,38],[9,38],[10,38],[11,37],[12,38],[13,38],[14,38],[11,36],[12,36],[13,36],[11,35],[12,34],[13,34],[14,35],[16,34],[17,35],[17,36],[18,37],[18,38],[19,34],[19,35],[19,36],[21,35],[21,36],[22,34],[23,34],[24,35],[23,36],[22,36],[21,37],[22,38],[23,38],[24,38],[26,32],[26,33],[26,34],[26,35],[26,36],[26,37],[26,38],[27,38],[30,38],[31,38],[32,38],[33,38],[34,38],[32,32],[32,33],[32,34],[32,35],[32,36],[32,37],[31,32],[30,33],[6,37],[6,36],[6,35],[6,34],[6,33],[6,32],[6,31],[113,36],[113,34],[113,33],[112,32],[111,32],[110,32],[112,38],[111,38],[110,38],[113,37],[111,35],[112,35],[109,37],[109,33],[106,38],[105,38],[105,37],[105,36],[105,35],[105,34],[105,33],[105,32],[103,35],[102,34],[101,34],[100,35],[100,36],[101,36],[102,36],[100,37],[101,38],[102,38],[103,38],[98,34],[98,35],[98,36],[97,37],[97,38],[96,36],[96,35],[95,34],[93,35],[92,34],[91,34],[90,35],[90,36],[90,37],[91,36],[92,36],[91,38],[92,38],[93,38],[89,38],[88,38],[87,38],[86,38],[85,38],[85,37],[85,36],[85,35],[85,34],[85,33],[85,32],[85,31],[85,49],[85,50],[85,51],[85,52],[85,53],[85,55],[85,54],[85,56],[86,56],[87,56],[88,56],[89,56],[90,55],[90,54],[90,53],[91,52],[92,52],[91,54],[92,54],[93,53],[91,56],[92,56],[93,56],[95,52],[96,53],[96,54],[97,55],[97,56],[98,52],[98,53],[98,54],[100,53],[100,54],[101,54],[102,54],[103,53],[102,52],[101,52],[100,55],[101,56],[102,56],[103,56],[105,50],[105,51],[105,52],[105,53],[105,54],[105,55],[105,56],[106,56],[109,52],[111,54],[111,55],[111,56],[110,54],[112,54],[109,53],[109,51],[111,53],[113,54],[109,50],[109,54],[56,10],[57,10],[58,10],[58,9],[57,9],[60,9],[60,10],[61,10],[62,10],[61,9],[59,9],[57,14],[57,15],[57,16],[57,17],[56,17],[56,16],[56,11],[56,12],[56,13],[56,14],[56,15],[62,16],[62,17],[62,15],[62,14],[62,13],[62,12],[62,11],[60,14],[59,14],[58,14],[66,17],[66,16],[66,15],[66,14],[66,13],[66,12],[66,11],[66,10],[66,9],[68,14],[67,14],[72,10],[72,17],[66,18],[62,18],[57,18],[56,18],[76,10],[76,17],[76,16],[76,15],[76,14],[76,13],[76,12],[76,11],[77,18],[77,17],[78,17],[79,17],[80,17],[81,17],[82,17],[82,18],[81,18],[80,18],[79,18],[78,18],[77,13],[77,14],[78,14],[78,13],[79,13],[79,14],[77,9],[77,10],[78,10],[79,10],[80,10],[81,10],[82,10],[82,9],[81,9],[80,9],[79,9],[78,9],[53,9],[53,10],[53,11],[53,12],[53,13],[53,14],[53,15],[53,16],[53,17],[52,18],[52,13],[52,12],[52,11],[52,10],[52,9],[52,14],[52,15],[52,16],[52,17],[46,9],[46,10],[47,12],[41,9],[41,10],[40,10],[40,9],[39,9],[38,9],[38,10],[39,10],[57,11],[57,12],[57,13],[59,10],[37,9],[37,10],[36,10],[40,18],[39,18],[38,18],[37,18],[37,17],[36,17],[36,18],[41,18],[41,17],[40,17],[39,17],[38,17],[68,13],[72,18],[72,9],[67,13],[70,12],[70,11],[70,16],[70,15],[37,14],[37,13],[38,13],[39,13],[40,13],[41,13],[41,14],[40,14],[39,14],[38,14],[36,13],[53,18],[62,9],[46,11],[46,12],[46,13],[46,14],[46,15],[46,16],[46,17],[46,18],[47,18],[47,17],[47,16],[47,15],[47,14],[47,13],[63,10],[63,11],[63,12],[63,13],[63,14],[63,15],[63,16],[63,17],[63,18],[58,13],[59,13],[60,13],[61,13],[61,14],[67,9],[67,10],[67,11],[67,12],[67,15],[67,16],[67,17],[67,18],[69,13],[69,14],[71,11],[71,12],[73,9],[73,10],[73,17],[73,18],[71,15],[71,16],[77,16],[77,15],[77,12],[77,11],[83,9],[83,10],[83,17],[83,18],[80,13],[80,14],[81,14],[81,13],[47,9],[47,10],[47,11],[50,15],[50,16],[51,16],[51,15],[48,11],[48,12],[49,12],[49,11],[49,13],[49,14],[50,14],[50,13],[43,9],[43,10],[42,10],[42,9],[42,13],[43,14],[43,15],[43,16],[43,17],[42,18],[42,17],[42,16],[42,15],[42,14],[36,11],[36,12],[37,12],[37,11]],
        
    "snake":[[30,2],[30,2],[30,2],[30,2],[30,2],[30,2],[30,2],[30,2],[30,2],[30,2],[30,2],[30,2],[30,2],[30,2],[30,2],[30,2]],

    "levels":[  
            [[5,30],[35,39]],
            [[5,48],[35,57]],
            [[84,30],[114,39]],
            [[84,48],[114,57]]
        ]
}